{
  "id": "nextjs-from-bee",
  "online": {
      "default": true
  },
  "c_body": {
    "default": {
      "_type": "markup_text",
      "source": "<div class="no-js" lang="">     <div>         <meta charset="utf-8">         <meta http-equiv="x-ua-compatible" content="ie=edge">         <title>Testing</title>         <meta name="description" content="">         <meta name="viewport" content="width=device-width, initial-scale=1">          <link rel="apple-touch-icon" href="/apple-touch-icon.png">         <!-- Place favicon.ico in the root directory -->      </div>     <div>         <!--[if lt IE 8]>             <p class="browserupgrade">             You are using an <strong>outdated</strong> browser. Please             <a href="http://browsehappy.com/">upgrade your browser</a> to improve             your experience.             </p>         <![endif]-->         <h1>This is a test page for testing some bash script</h1>     </div> </div> "
    }
  }
}
